<svg xmlns="http://www.w3.org/2000/svg" xmlns:xlink="http://www.w3.org/1999/xlink" width="86" height="86" viewBox="0 0 86 86">
  <defs>
    <filter id="Ellipse_19" x="0" y="0" width="86" height="86" filterUnits="userSpaceOnUse">
      <feOffset dy="3" input="SourceAlpha"/>
      <feGaussianBlur stdDeviation="7" result="blur"/>
      <feFlood flood-color="#8670b3"/>
      <feComposite operator="in" in2="blur"/>
      <feComposite in="SourceGraphic"/>
    </filter>
  </defs>
  <g id="Bullet_w_Chevron" data-name="Bullet w Chevron" transform="translate(21 18)">
    <g id="Group_57" data-name="Group 57">
      <g transform="matrix(1, 0, 0, 1, -21, -18)" filter="url(#Ellipse_19)">
        <circle id="Ellipse_19-2" data-name="Ellipse 19" cx="22" cy="22" r="22" transform="translate(21 18)" fill="#8670b3"/>
      </g>
    </g>
    <g id="Group_22" data-name="Group 22" transform="translate(18.102 13.773)">
      <path id="down-arrow" d="M16.275.462a1.588,1.588,0,0,0-2.24,0l-5.7,5.623L2.71.462A1.589,1.589,0,1,0,.47,2.718L7.2,9.453a1.588,1.588,0,0,0,2.256,0l6.815-6.735a1.588,1.588,0,0,0,0-2.256Z" transform="translate(0 16.745) rotate(-90)" fill="#fff"/>
    </g>
  </g>
</svg>
