<svg xmlns="http://www.w3.org/2000/svg" width="134" height="134" viewBox="0 0 134 134">
  <g id="Group_1" data-name="Group 1" transform="translate(-147 -396)">
    <circle id="Ellipse_53" data-name="Ellipse 53" cx="67" cy="67" r="67" transform="translate(147 396)" fill="#4fc192"/>
    <text id="Study_Logo" data-name="Study Logo" transform="translate(166 468)" fill="#fff" font-size="18" font-family="RocGrotesk-Regular, Roc Grotesk"><tspan x="0" y="0">Study Logo</tspan></text>
  </g>
</svg>
