<?xml version="1.0" encoding="UTF-8"?>
<svg width="17px" height="28px" viewBox="0 0 17 28" version="1.1" xmlns="http://www.w3.org/2000/svg" xmlns:xlink="http://www.w3.org/1999/xlink">
    <!-- Generator: Sketch 61.2 (89653) - https://sketch.com -->
    <title>map-marker-papillon</title>
    <desc>Created with Sketch.</desc>
    <defs>
        <linearGradient x1="0%" y1="142.8%" x2="-25.6%" y2="30.7%" id="linearGradient-1">
            <stop stop-color="#64B5F1" offset="0%"></stop>
            <stop stop-color="#64B5F1" offset="100%"></stop>
        </linearGradient>
    </defs>
    <g id="Page-26" stroke="none" stroke-width="1" fill="none" fill-rule="evenodd">
        <g id="map-marker-papillon" fill-rule="nonzero">
            <ellipse id="Ellipse_15" fill="#003C70" cx="8.32573913" cy="24.5438261" rx="4.77217391" ry="2.54556522"></ellipse>
            <path d="M8.35617391,-3.55271368e-15 C3.74483487,0.00536236526 0.00737825057,3.74118548 -8.8817842e-15,8.35252174 C-8.8817842e-15,15.5424348 7.66956522,23.8973913 7.9946087,24.2504348 C8.08977085,24.3504933 8.22174105,24.4074783 8.35982609,24.4074783 C8.4951545,24.405912 8.62398385,24.3491919 8.71652174,24.2504348 C9.044,23.8986087 16.7111304,15.5424348 16.7111304,8.35252174 C16.7057665,3.7427253 12.9708382,0.00670789916 8.36104348,-3.55271368e-15 L8.35617391,-3.55271368e-15 Z M8.35617391,12.4965217 C6.0701953,12.4965217 4.21704348,10.6433699 4.21704348,8.3573913 C4.21704348,6.07141269 6.0701953,4.21826087 8.35617391,4.21826087 C10.6421525,4.21826087 12.4953043,6.07141269 12.4953043,8.3573913 C12.4906121,10.6423737 10.6387239,12.4931732 8.35373913,12.4965217 L8.35617391,12.4965217 Z" id="np_map_3696235_000000" fill="url(#linearGradient-1)"></path>
        </g>
    </g>
</svg>